\relax 
\providecommand\hyper@newdestlabel[2]{}
\providecommand\zref@newlabel[2]{}
\providecommand\HyperFirstAtBeginDocument{\AtBeginDocument}
\HyperFirstAtBeginDocument{\ifx\hyper@anchor\@undefined
\global\let\oldcontentsline\contentsline
\gdef\contentsline#1#2#3#4{\oldcontentsline{#1}{#2}{#3}}
\global\let\oldnewlabel\newlabel
\gdef\newlabel#1#2{\newlabelxx{#1}#2}
\gdef\newlabelxx#1#2#3#4#5#6{\oldnewlabel{#1}{{#2}{#3}}}
\AtEndDocument{\ifx\hyper@anchor\@undefined
\let\contentsline\oldcontentsline
\let\newlabel\oldnewlabel
\fi}
\fi}
\global\let\hyper@last\relax 
\gdef\HyperFirstAtBeginDocument#1{#1}
\providecommand\HyField@AuxAddToFields[1]{}
\providecommand\HyField@AuxAddToCoFields[2]{}
\providecommand\pbs@newkey[2]{}
\providecommand\pbs@seq@push@cx[2]{}
\providecommand\pbs@at@end@dvi@check{}
\pbs@at@end@dvi@check
\providecommand\@anim@newkey[2]{}
\pbs@newkey{pbs@last@page}{1}
\babel@aux{english}{}
\@writefile{nav}{\headcommand {\slideentry {0}{0}{1}{1/1}{}{0}}}
\@writefile{nav}{\headcommand {\beamer@framepages {1}{1}}}
\pbs@newkey{pbs@last@page}{2}
\@writefile{nav}{\headcommand {\slideentry {0}{0}{2}{2/2}{}{0}}}
\@writefile{nav}{\headcommand {\beamer@framepages {2}{2}}}
\pbs@newkey{pbs@last@page}{3}
\@writefile{toc}{\beamer@sectionintoc {1}{Interpretability of neural network calibration}{3}{0}{1}}
\@writefile{nav}{\headcommand {\beamer@sectionpages {1}{2}}}
\@writefile{nav}{\headcommand {\beamer@subsectionpages {1}{2}}}
\@writefile{nav}{\headcommand {\sectionentry {1}{Interpretability of neural network calibration}{3}{Interpretability of neural network calibration}{0}}}
\@writefile{nav}{\headcommand {\slideentry {1}{0}{1}{3/3}{}{0}}}
\@writefile{nav}{\headcommand {\beamer@framepages {3}{3}}}
\pbs@newkey{pbs@last@page}{4}
\@writefile{nav}{\headcommand {\slideentry {1}{0}{2}{4/4}{}{0}}}
\@writefile{nav}{\headcommand {\beamer@framepages {4}{4}}}
\pbs@newkey{pbs@last@page}{5}
\@writefile{nav}{\headcommand {\slideentry {1}{0}{3}{5/5}{}{0}}}
\@writefile{nav}{\headcommand {\beamer@framepages {5}{5}}}
\pbs@newkey{pbs@last@page}{6}
\@writefile{nav}{\headcommand {\slideentry {1}{0}{4}{6/6}{}{0}}}
\@writefile{nav}{\headcommand {\beamer@framepages {6}{6}}}
\pbs@newkey{pbs@last@page}{7}
\@writefile{nav}{\headcommand {\slideentry {1}{0}{5}{7/7}{}{0}}}
\@writefile{nav}{\headcommand {\beamer@framepages {7}{7}}}
\pbs@newkey{pbs@last@page}{8}
\@writefile{nav}{\headcommand {\slideentry {1}{0}{6}{8/8}{}{0}}}
\@writefile{nav}{\headcommand {\beamer@framepages {8}{8}}}
\pbs@newkey{pbs@last@page}{9}
\@writefile{nav}{\headcommand {\slideentry {1}{0}{7}{9/9}{}{0}}}
\@writefile{nav}{\headcommand {\beamer@framepages {9}{9}}}
\pbs@newkey{pbs@last@page}{10}
\@writefile{nav}{\headcommand {\slideentry {1}{0}{8}{10/10}{}{0}}}
\@writefile{nav}{\headcommand {\beamer@framepages {10}{10}}}
\pbs@newkey{pbs@last@page}{11}
\@writefile{nav}{\headcommand {\slideentry {1}{0}{9}{11/11}{}{0}}}
\@writefile{nav}{\headcommand {\beamer@framepages {11}{11}}}
\pbs@newkey{pbs@last@page}{12}
\@writefile{nav}{\headcommand {\slideentry {1}{0}{10}{12/12}{}{0}}}
\@writefile{nav}{\headcommand {\beamer@framepages {12}{12}}}
\pbs@newkey{pbs@last@page}{13}
\@writefile{nav}{\headcommand {\slideentry {1}{0}{11}{13/13}{}{0}}}
\@writefile{nav}{\headcommand {\beamer@framepages {13}{13}}}
\pbs@newkey{pbs@last@page}{14}
\@writefile{nav}{\headcommand {\slideentry {1}{0}{12}{14/14}{}{0}}}
\@writefile{nav}{\headcommand {\beamer@framepages {14}{14}}}
\pbs@newkey{pbs@last@page}{15}
\@writefile{toc}{\beamer@sectionintoc {2}{Calibration of the Heston Model}{15}{0}{2}}
\@writefile{nav}{\headcommand {\beamer@sectionpages {3}{14}}}
\@writefile{nav}{\headcommand {\beamer@subsectionpages {3}{14}}}
\@writefile{nav}{\headcommand {\sectionentry {2}{Calibration of the Heston Model}{15}{Calibration of the Heston Model}{0}}}
\@writefile{nav}{\headcommand {\slideentry {2}{0}{1}{15/15}{}{0}}}
\@writefile{nav}{\headcommand {\beamer@framepages {15}{15}}}
\pbs@newkey{pbs@last@page}{16}
\@writefile{nav}{\headcommand {\slideentry {2}{0}{2}{16/16}{}{0}}}
\@writefile{nav}{\headcommand {\beamer@framepages {16}{16}}}
\pbs@newkey{pbs@last@page}{17}
\@writefile{nav}{\headcommand {\slideentry {2}{0}{3}{17/17}{}{0}}}
\@writefile{nav}{\headcommand {\beamer@framepages {17}{17}}}
\pbs@newkey{pbs@last@page}{18}
\@writefile{nav}{\headcommand {\slideentry {2}{0}{4}{18/18}{}{0}}}
\@writefile{nav}{\headcommand {\beamer@framepages {18}{18}}}
\pbs@newkey{pbs@last@page}{19}
\@writefile{nav}{\headcommand {\slideentry {2}{0}{5}{19/19}{}{0}}}
\@writefile{nav}{\headcommand {\beamer@framepages {19}{19}}}
\pbs@newkey{pbs@last@page}{20}
\@writefile{toc}{\beamer@sectionintoc {3}{Data processing and results}{20}{0}{3}}
\@writefile{nav}{\headcommand {\beamer@sectionpages {15}{19}}}
\@writefile{nav}{\headcommand {\beamer@subsectionpages {15}{19}}}
\@writefile{nav}{\headcommand {\sectionentry {3}{Data processing and results}{20}{Data processing and results}{0}}}
\@writefile{nav}{\headcommand {\slideentry {3}{0}{1}{20/20}{}{0}}}
\@writefile{nav}{\headcommand {\beamer@framepages {20}{20}}}
\pbs@newkey{pbs@last@page}{21}
\providecommand*\caption@xref[2]{\@setref\relax\@undefined{#1}}
\newlabel{fig:elu}{{1a}{21}{ELU activation function\relax }{Doc-Start}{}}
\@writefile{snm}{\beamer@slide {fig:elu}{21}}
\newlabel{sub@fig:elu}{{a}{21}{ELU activation function\relax }{Doc-Start}{}}
\@writefile{snm}{\beamer@slide {sub@fig:elu}{21}}
\newlabel{fig:hardsigmoid}{{1b}{21}{Hard sigmoid activation function\relax }{Doc-Start}{}}
\@writefile{snm}{\beamer@slide {fig:hardsigmoid}{21}}
\newlabel{sub@fig:hardsigmoid}{{b}{21}{Hard sigmoid activation function\relax }{Doc-Start}{}}
\@writefile{snm}{\beamer@slide {sub@fig:hardsigmoid}{21}}
\newlabel{fig:activations}{{\caption@xref {fig:activations}{ on input line 625}}{21}{Data processing and results}{Doc-Start}{}}
\@writefile{snm}{\beamer@slide {fig:activations}{21}}
\@writefile{nav}{\headcommand {\slideentry {3}{0}{2}{21/21}{}{0}}}
\@writefile{nav}{\headcommand {\beamer@framepages {21}{21}}}
\pbs@newkey{pbs@last@page}{22}
\@writefile{nav}{\headcommand {\slideentry {3}{0}{3}{22/22}{}{0}}}
\@writefile{nav}{\headcommand {\beamer@framepages {22}{22}}}
\pbs@newkey{pbs@last@page}{23}
\newlabel{fig:fcnnexample}{{2}{23}{Example of a FCNN\relax }{Doc-Start}{}}
\@writefile{snm}{\beamer@slide {fig:fcnnexample}{23}}
\@writefile{nav}{\headcommand {\slideentry {3}{0}{4}{23/23}{}{0}}}
\@writefile{nav}{\headcommand {\beamer@framepages {23}{23}}}
\pbs@newkey{pbs@last@page}{24}
\newlabel{fig:fcnnmodel}{{3}{24}{The structure of the FCNN\relax }{Doc-Start}{}}
\@writefile{snm}{\beamer@slide {fig:fcnnmodel}{24}}
\@writefile{nav}{\headcommand {\slideentry {3}{0}{5}{24/24}{}{0}}}
\@writefile{nav}{\headcommand {\beamer@framepages {24}{24}}}
\pbs@newkey{pbs@last@page}{25}
\@writefile{nav}{\headcommand {\slideentry {3}{0}{6}{25/25}{}{0}}}
\@writefile{nav}{\headcommand {\beamer@framepages {25}{25}}}
\pbs@newkey{pbs@last@page}{26}
\@writefile{nav}{\headcommand {\slideentry {3}{0}{7}{26/26}{}{0}}}
\@writefile{nav}{\headcommand {\beamer@framepages {26}{26}}}
\pbs@newkey{pbs@last@page}{27}
\newlabel{fig:cnnexample}{{4}{27}{Example of a CNN architecture\relax }{Doc-Start}{}}
\@writefile{snm}{\beamer@slide {fig:cnnexample}{27}}
\@writefile{nav}{\headcommand {\slideentry {3}{0}{8}{27/27}{}{0}}}
\@writefile{nav}{\headcommand {\beamer@framepages {27}{27}}}
\pbs@newkey{pbs@last@page}{28}
\zref@newlabel{anim@abspage0}{\abspage{28}}
\newlabel{fig:convexample}{{5}{28}{Example of convolutional operation\relax }{Doc-Start}{}}
\@writefile{snm}{\beamer@slide {fig:convexample}{28}}
\@writefile{nav}{\headcommand {\slideentry {3}{0}{9}{28/28}{}{0}}}
\@writefile{nav}{\headcommand {\beamer@framepages {28}{28}}}
\pbs@newkey{pbs@last@page}{29}
\@writefile{nav}{\headcommand {\slideentry {3}{0}{10}{29/29}{}{0}}}
\@writefile{nav}{\headcommand {\beamer@framepages {29}{29}}}
\pbs@newkey{pbs@last@page}{30}
\newlabel{fig:cnnmodel}{{6}{30}{Model of the CNN used\relax }{Doc-Start}{}}
\@writefile{snm}{\beamer@slide {fig:cnnmodel}{30}}
\@writefile{nav}{\headcommand {\slideentry {3}{0}{11}{30/30}{}{0}}}
\@writefile{nav}{\headcommand {\beamer@framepages {30}{30}}}
\pbs@newkey{pbs@last@page}{31}
\@writefile{nav}{\headcommand {\slideentry {3}{0}{12}{31/31}{}{0}}}
\@writefile{nav}{\headcommand {\beamer@framepages {31}{31}}}
\pbs@newkey{pbs@last@page}{32}
\@writefile{nav}{\headcommand {\slideentry {3}{0}{13}{32/32}{}{0}}}
\@writefile{nav}{\headcommand {\beamer@framepages {32}{32}}}
\pbs@newkey{pbs@last@page}{33}
\newlabel{fig:fcnntrainv0errors}{{7}{33}{FCNN train error for $v_0$\relax }{Doc-Start}{}}
\@writefile{snm}{\beamer@slide {fig:fcnntrainv0errors}{33}}
\@writefile{nav}{\headcommand {\slideentry {3}{0}{14}{33/33}{}{0}}}
\@writefile{nav}{\headcommand {\beamer@framepages {33}{33}}}
\pbs@newkey{pbs@last@page}{34}
\newlabel{fig:fcnntrainrhoerrors}{{8}{34}{FCNN train error for $\rho $\relax }{Doc-Start}{}}
\@writefile{snm}{\beamer@slide {fig:fcnntrainrhoerrors}{34}}
\@writefile{nav}{\headcommand {\slideentry {3}{0}{15}{34/34}{}{0}}}
\@writefile{nav}{\headcommand {\beamer@framepages {34}{34}}}
\pbs@newkey{pbs@last@page}{35}
\newlabel{fig:fcnntrainsigmaerrors}{{9}{35}{FCNN train error for $\sigma $\relax }{Doc-Start}{}}
\@writefile{snm}{\beamer@slide {fig:fcnntrainsigmaerrors}{35}}
\@writefile{nav}{\headcommand {\slideentry {3}{0}{16}{35/35}{}{0}}}
\@writefile{nav}{\headcommand {\beamer@framepages {35}{35}}}
\pbs@newkey{pbs@last@page}{36}
\newlabel{fig:fcnntrainthetaerrors}{{10}{36}{FCNN train error for $\theta $\relax }{Doc-Start}{}}
\@writefile{snm}{\beamer@slide {fig:fcnntrainthetaerrors}{36}}
\@writefile{nav}{\headcommand {\slideentry {3}{0}{17}{36/36}{}{0}}}
\@writefile{nav}{\headcommand {\beamer@framepages {36}{36}}}
\pbs@newkey{pbs@last@page}{37}
\newlabel{fig:fcnntrainkappaerrors}{{11}{37}{FCNN train error for $\kappa $\relax }{Doc-Start}{}}
\@writefile{snm}{\beamer@slide {fig:fcnntrainkappaerrors}{37}}
\@writefile{nav}{\headcommand {\slideentry {3}{0}{18}{37/37}{}{0}}}
\@writefile{nav}{\headcommand {\beamer@framepages {37}{37}}}
\pbs@newkey{pbs@last@page}{38}
\newlabel{fig:fcnntestv0errors}{{12}{38}{FCNN test error for $v_0$\relax }{Doc-Start}{}}
\@writefile{snm}{\beamer@slide {fig:fcnntestv0errors}{38}}
\@writefile{nav}{\headcommand {\slideentry {3}{0}{19}{38/38}{}{0}}}
\@writefile{nav}{\headcommand {\beamer@framepages {38}{38}}}
\pbs@newkey{pbs@last@page}{39}
\newlabel{fig:fcnntestrhoerrors}{{13}{39}{FCNN test error for $\rho $\relax }{Doc-Start}{}}
\@writefile{snm}{\beamer@slide {fig:fcnntestrhoerrors}{39}}
\@writefile{nav}{\headcommand {\slideentry {3}{0}{20}{39/39}{}{0}}}
\@writefile{nav}{\headcommand {\beamer@framepages {39}{39}}}
\pbs@newkey{pbs@last@page}{40}
\newlabel{fig:fcnntestsigmaerrors}{{14}{40}{FCNN test error for $\sigma $\relax }{Doc-Start}{}}
\@writefile{snm}{\beamer@slide {fig:fcnntestsigmaerrors}{40}}
\@writefile{nav}{\headcommand {\slideentry {3}{0}{21}{40/40}{}{0}}}
\@writefile{nav}{\headcommand {\beamer@framepages {40}{40}}}
\pbs@newkey{pbs@last@page}{41}
\newlabel{fig:fcnntestthetaerrors}{{15}{41}{FCNN test error for $\theta $\relax }{Doc-Start}{}}
\@writefile{snm}{\beamer@slide {fig:fcnntestthetaerrors}{41}}
\@writefile{nav}{\headcommand {\slideentry {3}{0}{22}{41/41}{}{0}}}
\@writefile{nav}{\headcommand {\beamer@framepages {41}{41}}}
\pbs@newkey{pbs@last@page}{42}
\newlabel{fig:fcnntestkappaerrors}{{16}{42}{FCNN test error for $\kappa $\relax }{Doc-Start}{}}
\@writefile{snm}{\beamer@slide {fig:fcnntestkappaerrors}{42}}
\@writefile{nav}{\headcommand {\slideentry {3}{0}{23}{42/42}{}{0}}}
\@writefile{nav}{\headcommand {\beamer@framepages {42}{42}}}
\pbs@newkey{pbs@last@page}{43}
\newlabel{fig:CNNtrainv0errors}{{17}{43}{CNN train error for $v_0$\relax }{Doc-Start}{}}
\@writefile{snm}{\beamer@slide {fig:CNNtrainv0errors}{43}}
\@writefile{nav}{\headcommand {\slideentry {3}{0}{24}{43/43}{}{0}}}
\@writefile{nav}{\headcommand {\beamer@framepages {43}{43}}}
\pbs@newkey{pbs@last@page}{44}
\newlabel{fig:CNNtrainrhoerrors}{{18}{44}{CNN train error for $\rho $\relax }{Doc-Start}{}}
\@writefile{snm}{\beamer@slide {fig:CNNtrainrhoerrors}{44}}
\@writefile{nav}{\headcommand {\slideentry {3}{0}{25}{44/44}{}{0}}}
\@writefile{nav}{\headcommand {\beamer@framepages {44}{44}}}
\pbs@newkey{pbs@last@page}{45}
\newlabel{fig:CNNtrainsigmaerrors}{{19}{45}{CNN train error for $\sigma $\relax }{Doc-Start}{}}
\@writefile{snm}{\beamer@slide {fig:CNNtrainsigmaerrors}{45}}
\@writefile{nav}{\headcommand {\slideentry {3}{0}{26}{45/45}{}{0}}}
\@writefile{nav}{\headcommand {\beamer@framepages {45}{45}}}
\pbs@newkey{pbs@last@page}{46}
\newlabel{fig:CNNtrainthetaerrors}{{20}{46}{CNN train error for $\theta $\relax }{Doc-Start}{}}
\@writefile{snm}{\beamer@slide {fig:CNNtrainthetaerrors}{46}}
\@writefile{nav}{\headcommand {\slideentry {3}{0}{27}{46/46}{}{0}}}
\@writefile{nav}{\headcommand {\beamer@framepages {46}{46}}}
\pbs@newkey{pbs@last@page}{47}
\newlabel{fig:CNNtrainkappaerrors}{{21}{47}{CNN train error for $\kappa $\relax }{Doc-Start}{}}
\@writefile{snm}{\beamer@slide {fig:CNNtrainkappaerrors}{47}}
\@writefile{nav}{\headcommand {\slideentry {3}{0}{28}{47/47}{}{0}}}
\@writefile{nav}{\headcommand {\beamer@framepages {47}{47}}}
\pbs@newkey{pbs@last@page}{48}
\newlabel{fig:CNNtestv0errors}{{22}{48}{CNN test error for $v_0$\relax }{Doc-Start}{}}
\@writefile{snm}{\beamer@slide {fig:CNNtestv0errors}{48}}
\@writefile{nav}{\headcommand {\slideentry {3}{0}{29}{48/48}{}{0}}}
\@writefile{nav}{\headcommand {\beamer@framepages {48}{48}}}
\pbs@newkey{pbs@last@page}{49}
\newlabel{fig:CNNtestrhoerrors}{{23}{49}{CNN test error for $\rho $\relax }{Doc-Start}{}}
\@writefile{snm}{\beamer@slide {fig:CNNtestrhoerrors}{49}}
\@writefile{nav}{\headcommand {\slideentry {3}{0}{30}{49/49}{}{0}}}
\@writefile{nav}{\headcommand {\beamer@framepages {49}{49}}}
\pbs@newkey{pbs@last@page}{50}
\newlabel{fig:CNNtestsigmaerrors}{{24}{50}{CNN test error for $\sigma $\relax }{Doc-Start}{}}
\@writefile{snm}{\beamer@slide {fig:CNNtestsigmaerrors}{50}}
\@writefile{nav}{\headcommand {\slideentry {3}{0}{31}{50/50}{}{0}}}
\@writefile{nav}{\headcommand {\beamer@framepages {50}{50}}}
\pbs@newkey{pbs@last@page}{51}
\newlabel{fig:CNNtestthetaerrors}{{25}{51}{CNN test error for $\theta $\relax }{Doc-Start}{}}
\@writefile{snm}{\beamer@slide {fig:CNNtestthetaerrors}{51}}
\@writefile{nav}{\headcommand {\slideentry {3}{0}{32}{51/51}{}{0}}}
\@writefile{nav}{\headcommand {\beamer@framepages {51}{51}}}
\pbs@newkey{pbs@last@page}{52}
\newlabel{fig:CNNtestkappaerrors}{{26}{52}{CNN test error for $\kappa $\relax }{Doc-Start}{}}
\@writefile{snm}{\beamer@slide {fig:CNNtestkappaerrors}{52}}
\@writefile{nav}{\headcommand {\slideentry {3}{0}{33}{52/52}{}{0}}}
\@writefile{nav}{\headcommand {\beamer@framepages {52}{52}}}
\pbs@newkey{pbs@last@page}{53}
\@writefile{nav}{\headcommand {\slideentry {3}{0}{34}{53/53}{}{0}}}
\@writefile{nav}{\headcommand {\beamer@framepages {53}{53}}}
\pbs@newkey{pbs@last@page}{54}
\@writefile{nav}{\headcommand {\slideentry {3}{0}{35}{54/54}{}{0}}}
\@writefile{nav}{\headcommand {\beamer@framepages {54}{54}}}
\pbs@newkey{pbs@last@page}{55}
\newlabel{fig:fcnnelrpbarplot}{{27a}{55}{$\epsilon -$LRP for the FCNN barplot\relax }{Doc-Start}{}}
\@writefile{snm}{\beamer@slide {fig:fcnnelrpbarplot}{55}}
\newlabel{sub@fig:fcnnelrpbarplot}{{a}{55}{$\epsilon -$LRP for the FCNN barplot\relax }{Doc-Start}{}}
\@writefile{snm}{\beamer@slide {sub@fig:fcnnelrpbarplot}{55}}
\newlabel{fig:fcnnelrpheatmap}{{27b}{55}{$\epsilon -$LRP for the FCNN heatmap\relax }{Doc-Start}{}}
\@writefile{snm}{\beamer@slide {fig:fcnnelrpheatmap}{55}}
\newlabel{sub@fig:fcnnelrpheatmap}{{b}{55}{$\epsilon -$LRP for the FCNN heatmap\relax }{Doc-Start}{}}
\@writefile{snm}{\beamer@slide {sub@fig:fcnnelrpheatmap}{55}}
\newlabel{fig:fcnnelrp}{{\caption@xref {fig:fcnnelrp}{ on input line 1017}}{55}{Data processing and results}{Doc-Start}{}}
\@writefile{snm}{\beamer@slide {fig:fcnnelrp}{55}}
\@writefile{nav}{\headcommand {\slideentry {3}{0}{36}{55/55}{}{0}}}
\@writefile{nav}{\headcommand {\beamer@framepages {55}{55}}}
\pbs@newkey{pbs@last@page}{56}
\newlabel{fig:fcnnshapv0barplot}{{28a}{56}{SHAP on $v_0$ for the FCNN barplot\relax }{Doc-Start}{}}
\@writefile{snm}{\beamer@slide {fig:fcnnshapv0barplot}{56}}
\newlabel{sub@fig:fcnnshapv0barplot}{{a}{56}{SHAP on $v_0$ for the FCNN barplot\relax }{Doc-Start}{}}
\@writefile{snm}{\beamer@slide {sub@fig:fcnnshapv0barplot}{56}}
\newlabel{fig:fcnnshapv0heatmap}{{28b}{56}{SHAP on $v_0$ for the FCNN heatmap\relax }{Doc-Start}{}}
\@writefile{snm}{\beamer@slide {fig:fcnnshapv0heatmap}{56}}
\newlabel{sub@fig:fcnnshapv0heatmap}{{b}{56}{SHAP on $v_0$ for the FCNN heatmap\relax }{Doc-Start}{}}
\@writefile{snm}{\beamer@slide {sub@fig:fcnnshapv0heatmap}{56}}
\newlabel{fig:fcnnshapv0}{{\caption@xref {fig:fcnnshapv0}{ on input line 1037}}{56}{Data processing and results}{Doc-Start}{}}
\@writefile{snm}{\beamer@slide {fig:fcnnshapv0}{56}}
\@writefile{nav}{\headcommand {\slideentry {3}{0}{37}{56/56}{}{0}}}
\@writefile{nav}{\headcommand {\beamer@framepages {56}{56}}}
\pbs@newkey{pbs@last@page}{57}
\newlabel{fig:fcnnshaprhobarplot}{{29a}{57}{SHAP on $\rho $ for the FCNN barplot\relax }{Doc-Start}{}}
\@writefile{snm}{\beamer@slide {fig:fcnnshaprhobarplot}{57}}
\newlabel{sub@fig:fcnnshaprhobarplot}{{a}{57}{SHAP on $\rho $ for the FCNN barplot\relax }{Doc-Start}{}}
\@writefile{snm}{\beamer@slide {sub@fig:fcnnshaprhobarplot}{57}}
\newlabel{fig:fcnnshaprhoheatmap}{{29b}{57}{SHAP on $\rho $ for the FCNN heatmap\relax }{Doc-Start}{}}
\@writefile{snm}{\beamer@slide {fig:fcnnshaprhoheatmap}{57}}
\newlabel{sub@fig:fcnnshaprhoheatmap}{{b}{57}{SHAP on $\rho $ for the FCNN heatmap\relax }{Doc-Start}{}}
\@writefile{snm}{\beamer@slide {sub@fig:fcnnshaprhoheatmap}{57}}
\newlabel{fig:fcnnshaprho}{{\caption@xref {fig:fcnnshaprho}{ on input line 1057}}{57}{Data processing and results}{Doc-Start}{}}
\@writefile{snm}{\beamer@slide {fig:fcnnshaprho}{57}}
\@writefile{nav}{\headcommand {\slideentry {3}{0}{38}{57/57}{}{0}}}
\@writefile{nav}{\headcommand {\beamer@framepages {57}{57}}}
\pbs@newkey{pbs@last@page}{58}
\newlabel{fig:fcnnshapsigmabarplot}{{30a}{58}{SHAP on $\sigma $ for the FCNN barplot\relax }{Doc-Start}{}}
\@writefile{snm}{\beamer@slide {fig:fcnnshapsigmabarplot}{58}}
\newlabel{sub@fig:fcnnshapsigmabarplot}{{a}{58}{SHAP on $\sigma $ for the FCNN barplot\relax }{Doc-Start}{}}
\@writefile{snm}{\beamer@slide {sub@fig:fcnnshapsigmabarplot}{58}}
\newlabel{fig:fcnnshapsigmaheatmap}{{30b}{58}{SHAP on $\sigma $ for the FCNN heatmap\relax }{Doc-Start}{}}
\@writefile{snm}{\beamer@slide {fig:fcnnshapsigmaheatmap}{58}}
\newlabel{sub@fig:fcnnshapsigmaheatmap}{{b}{58}{SHAP on $\sigma $ for the FCNN heatmap\relax }{Doc-Start}{}}
\@writefile{snm}{\beamer@slide {sub@fig:fcnnshapsigmaheatmap}{58}}
\newlabel{fig:fcnnshapsigma}{{\caption@xref {fig:fcnnshapsigma}{ on input line 1077}}{58}{Data processing and results}{Doc-Start}{}}
\@writefile{snm}{\beamer@slide {fig:fcnnshapsigma}{58}}
\@writefile{nav}{\headcommand {\slideentry {3}{0}{39}{58/58}{}{0}}}
\@writefile{nav}{\headcommand {\beamer@framepages {58}{58}}}
\pbs@newkey{pbs@last@page}{59}
\newlabel{fig:fcnnshapthetabarplot}{{31a}{59}{SHAP on $\theta $ for the FCNN barplot\relax }{Doc-Start}{}}
\@writefile{snm}{\beamer@slide {fig:fcnnshapthetabarplot}{59}}
\newlabel{sub@fig:fcnnshapthetabarplot}{{a}{59}{SHAP on $\theta $ for the FCNN barplot\relax }{Doc-Start}{}}
\@writefile{snm}{\beamer@slide {sub@fig:fcnnshapthetabarplot}{59}}
\newlabel{fig:fcnnshapthetaheatmap}{{31b}{59}{SHAP on $\theta $ for the FCNN heatmap\relax }{Doc-Start}{}}
\@writefile{snm}{\beamer@slide {fig:fcnnshapthetaheatmap}{59}}
\newlabel{sub@fig:fcnnshapthetaheatmap}{{b}{59}{SHAP on $\theta $ for the FCNN heatmap\relax }{Doc-Start}{}}
\@writefile{snm}{\beamer@slide {sub@fig:fcnnshapthetaheatmap}{59}}
\newlabel{fig:fcnnshaptheta}{{\caption@xref {fig:fcnnshaptheta}{ on input line 1097}}{59}{Data processing and results}{Doc-Start}{}}
\@writefile{snm}{\beamer@slide {fig:fcnnshaptheta}{59}}
\@writefile{nav}{\headcommand {\slideentry {3}{0}{40}{59/59}{}{0}}}
\@writefile{nav}{\headcommand {\beamer@framepages {59}{59}}}
\pbs@newkey{pbs@last@page}{60}
\newlabel{fig:fcnnshapkappabarplot}{{32a}{60}{SHAP on $\kappa $ for the FCNN barplot\relax }{Doc-Start}{}}
\@writefile{snm}{\beamer@slide {fig:fcnnshapkappabarplot}{60}}
\newlabel{sub@fig:fcnnshapkappabarplot}{{a}{60}{SHAP on $\kappa $ for the FCNN barplot\relax }{Doc-Start}{}}
\@writefile{snm}{\beamer@slide {sub@fig:fcnnshapkappabarplot}{60}}
\newlabel{fig:fcnnshapkappaheatmap}{{32b}{60}{SHAP on $\kappa $ for the FCNN heatmap\relax }{Doc-Start}{}}
\@writefile{snm}{\beamer@slide {fig:fcnnshapkappaheatmap}{60}}
\newlabel{sub@fig:fcnnshapkappaheatmap}{{b}{60}{SHAP on $\kappa $ for the FCNN heatmap\relax }{Doc-Start}{}}
\@writefile{snm}{\beamer@slide {sub@fig:fcnnshapkappaheatmap}{60}}
\newlabel{fig:fcnnshapkappa}{{\caption@xref {fig:fcnnshapkappa}{ on input line 1117}}{60}{Data processing and results}{Doc-Start}{}}
\@writefile{snm}{\beamer@slide {fig:fcnnshapkappa}{60}}
\@writefile{nav}{\headcommand {\slideentry {3}{0}{41}{60/60}{}{0}}}
\@writefile{nav}{\headcommand {\beamer@framepages {60}{60}}}
\pbs@newkey{pbs@last@page}{61}
\newlabel{fig:fcnnshapstack}{{33a}{61}{SHAP stackplot on FCNN\relax }{Doc-Start}{}}
\@writefile{snm}{\beamer@slide {fig:fcnnshapstack}{61}}
\newlabel{sub@fig:fcnnshapstack}{{a}{61}{SHAP stackplot on FCNN\relax }{Doc-Start}{}}
\@writefile{snm}{\beamer@slide {sub@fig:fcnnshapstack}{61}}
\newlabel{fig:fcnnshapheat}{{33b}{61}{SHAP heatmap on FCNN\relax }{Doc-Start}{}}
\@writefile{snm}{\beamer@slide {fig:fcnnshapheat}{61}}
\newlabel{sub@fig:fcnnshapheat}{{b}{61}{SHAP heatmap on FCNN\relax }{Doc-Start}{}}
\@writefile{snm}{\beamer@slide {sub@fig:fcnnshapheat}{61}}
\newlabel{fig:fcnnshap}{{\caption@xref {fig:fcnnshap}{ on input line 1137}}{61}{Data processing and results}{Doc-Start}{}}
\@writefile{snm}{\beamer@slide {fig:fcnnshap}{61}}
\@writefile{nav}{\headcommand {\slideentry {3}{0}{42}{61/61}{}{0}}}
\@writefile{nav}{\headcommand {\beamer@framepages {61}{61}}}
\pbs@newkey{pbs@last@page}{62}
\newlabel{fig:CNNelrpbarplot}{{34a}{62}{$\epsilon -$LRP for the CNN barplot\relax }{Doc-Start}{}}
\@writefile{snm}{\beamer@slide {fig:CNNelrpbarplot}{62}}
\newlabel{sub@fig:CNNelrpbarplot}{{a}{62}{$\epsilon -$LRP for the CNN barplot\relax }{Doc-Start}{}}
\@writefile{snm}{\beamer@slide {sub@fig:CNNelrpbarplot}{62}}
\newlabel{fig:CNNelrpheatmap}{{34b}{62}{$\epsilon -$LRP for the CNN heatmap\relax }{Doc-Start}{}}
\@writefile{snm}{\beamer@slide {fig:CNNelrpheatmap}{62}}
\newlabel{sub@fig:CNNelrpheatmap}{{b}{62}{$\epsilon -$LRP for the CNN heatmap\relax }{Doc-Start}{}}
\@writefile{snm}{\beamer@slide {sub@fig:CNNelrpheatmap}{62}}
\newlabel{fig:CNNelrp}{{\caption@xref {fig:CNNelrp}{ on input line 1158}}{62}{Data processing and results}{Doc-Start}{}}
\@writefile{snm}{\beamer@slide {fig:CNNelrp}{62}}
\@writefile{nav}{\headcommand {\slideentry {3}{0}{43}{62/62}{}{0}}}
\@writefile{nav}{\headcommand {\beamer@framepages {62}{62}}}
\pbs@newkey{pbs@last@page}{63}
\newlabel{fig:CNNshapv0barplot}{{35a}{63}{SHAP on $v_0$ for the CNN barplot\relax }{Doc-Start}{}}
\@writefile{snm}{\beamer@slide {fig:CNNshapv0barplot}{63}}
\newlabel{sub@fig:CNNshapv0barplot}{{a}{63}{SHAP on $v_0$ for the CNN barplot\relax }{Doc-Start}{}}
\@writefile{snm}{\beamer@slide {sub@fig:CNNshapv0barplot}{63}}
\newlabel{fig:CNNshapv0heatmap}{{35b}{63}{SHAP on $v_0$ for the CNN heatmap\relax }{Doc-Start}{}}
\@writefile{snm}{\beamer@slide {fig:CNNshapv0heatmap}{63}}
\newlabel{sub@fig:CNNshapv0heatmap}{{b}{63}{SHAP on $v_0$ for the CNN heatmap\relax }{Doc-Start}{}}
\@writefile{snm}{\beamer@slide {sub@fig:CNNshapv0heatmap}{63}}
\newlabel{fig:CNNshapv0}{{\caption@xref {fig:CNNshapv0}{ on input line 1178}}{63}{Data processing and results}{Doc-Start}{}}
\@writefile{snm}{\beamer@slide {fig:CNNshapv0}{63}}
\@writefile{nav}{\headcommand {\slideentry {3}{0}{44}{63/63}{}{0}}}
\@writefile{nav}{\headcommand {\beamer@framepages {63}{63}}}
\pbs@newkey{pbs@last@page}{64}
\newlabel{fig:CNNshaprhobarplot}{{36a}{64}{SHAP on $\rho $ for the CNN barplot\relax }{Doc-Start}{}}
\@writefile{snm}{\beamer@slide {fig:CNNshaprhobarplot}{64}}
\newlabel{sub@fig:CNNshaprhobarplot}{{a}{64}{SHAP on $\rho $ for the CNN barplot\relax }{Doc-Start}{}}
\@writefile{snm}{\beamer@slide {sub@fig:CNNshaprhobarplot}{64}}
\newlabel{fig:CNNshaprhoheatmap}{{36b}{64}{SHAP on $\rho $ for the CNN heatmap\relax }{Doc-Start}{}}
\@writefile{snm}{\beamer@slide {fig:CNNshaprhoheatmap}{64}}
\newlabel{sub@fig:CNNshaprhoheatmap}{{b}{64}{SHAP on $\rho $ for the CNN heatmap\relax }{Doc-Start}{}}
\@writefile{snm}{\beamer@slide {sub@fig:CNNshaprhoheatmap}{64}}
\newlabel{fig:CNNshaprho}{{\caption@xref {fig:CNNshaprho}{ on input line 1198}}{64}{Data processing and results}{Doc-Start}{}}
\@writefile{snm}{\beamer@slide {fig:CNNshaprho}{64}}
\@writefile{nav}{\headcommand {\slideentry {3}{0}{45}{64/64}{}{0}}}
\@writefile{nav}{\headcommand {\beamer@framepages {64}{64}}}
\pbs@newkey{pbs@last@page}{65}
\newlabel{fig:CNNshapsigmabarplot}{{37a}{65}{SHAP on $\sigma $ for the CNN barplot\relax }{Doc-Start}{}}
\@writefile{snm}{\beamer@slide {fig:CNNshapsigmabarplot}{65}}
\newlabel{sub@fig:CNNshapsigmabarplot}{{a}{65}{SHAP on $\sigma $ for the CNN barplot\relax }{Doc-Start}{}}
\@writefile{snm}{\beamer@slide {sub@fig:CNNshapsigmabarplot}{65}}
\newlabel{fig:CNNshapsigmaheatmap}{{37b}{65}{SHAP on $\sigma $ for the CNN heatmap\relax }{Doc-Start}{}}
\@writefile{snm}{\beamer@slide {fig:CNNshapsigmaheatmap}{65}}
\newlabel{sub@fig:CNNshapsigmaheatmap}{{b}{65}{SHAP on $\sigma $ for the CNN heatmap\relax }{Doc-Start}{}}
\@writefile{snm}{\beamer@slide {sub@fig:CNNshapsigmaheatmap}{65}}
\newlabel{fig:CNNshapsigma}{{\caption@xref {fig:CNNshapsigma}{ on input line 1218}}{65}{Data processing and results}{Doc-Start}{}}
\@writefile{snm}{\beamer@slide {fig:CNNshapsigma}{65}}
\@writefile{nav}{\headcommand {\slideentry {3}{0}{46}{65/65}{}{0}}}
\@writefile{nav}{\headcommand {\beamer@framepages {65}{65}}}
\pbs@newkey{pbs@last@page}{66}
\newlabel{fig:CNNshapthetabarplot}{{38a}{66}{SHAP on $\theta $ for the CNN barplot\relax }{Doc-Start}{}}
\@writefile{snm}{\beamer@slide {fig:CNNshapthetabarplot}{66}}
\newlabel{sub@fig:CNNshapthetabarplot}{{a}{66}{SHAP on $\theta $ for the CNN barplot\relax }{Doc-Start}{}}
\@writefile{snm}{\beamer@slide {sub@fig:CNNshapthetabarplot}{66}}
\newlabel{fig:CNNshapthetaheatmap}{{38b}{66}{SHAP on $\theta $ for the CNN heatmap\relax }{Doc-Start}{}}
\@writefile{snm}{\beamer@slide {fig:CNNshapthetaheatmap}{66}}
\newlabel{sub@fig:CNNshapthetaheatmap}{{b}{66}{SHAP on $\theta $ for the CNN heatmap\relax }{Doc-Start}{}}
\@writefile{snm}{\beamer@slide {sub@fig:CNNshapthetaheatmap}{66}}
\newlabel{fig:CNNshaptheta}{{\caption@xref {fig:CNNshaptheta}{ on input line 1238}}{66}{Data processing and results}{Doc-Start}{}}
\@writefile{snm}{\beamer@slide {fig:CNNshaptheta}{66}}
\@writefile{nav}{\headcommand {\slideentry {3}{0}{47}{66/66}{}{0}}}
\@writefile{nav}{\headcommand {\beamer@framepages {66}{66}}}
\pbs@newkey{pbs@last@page}{67}
\newlabel{fig:CNNshapkappabarplot}{{39a}{67}{SHAP on $\kappa $ for the CNN barplot\relax }{Doc-Start}{}}
\@writefile{snm}{\beamer@slide {fig:CNNshapkappabarplot}{67}}
\newlabel{sub@fig:CNNshapkappabarplot}{{a}{67}{SHAP on $\kappa $ for the CNN barplot\relax }{Doc-Start}{}}
\@writefile{snm}{\beamer@slide {sub@fig:CNNshapkappabarplot}{67}}
\newlabel{fig:CNNshapkappaheatmap}{{39b}{67}{SHAP on $\kappa $ for the CNN heatmap\relax }{Doc-Start}{}}
\@writefile{snm}{\beamer@slide {fig:CNNshapkappaheatmap}{67}}
\newlabel{sub@fig:CNNshapkappaheatmap}{{b}{67}{SHAP on $\kappa $ for the CNN heatmap\relax }{Doc-Start}{}}
\@writefile{snm}{\beamer@slide {sub@fig:CNNshapkappaheatmap}{67}}
\newlabel{fig:CNNshapkappa}{{\caption@xref {fig:CNNshapkappa}{ on input line 1258}}{67}{Data processing and results}{Doc-Start}{}}
\@writefile{snm}{\beamer@slide {fig:CNNshapkappa}{67}}
\@writefile{nav}{\headcommand {\slideentry {3}{0}{48}{67/67}{}{0}}}
\@writefile{nav}{\headcommand {\beamer@framepages {67}{67}}}
\pbs@newkey{pbs@last@page}{68}
\newlabel{fig:CNNshapstack}{{40a}{68}{SHAP stackplot on CNN\relax }{Doc-Start}{}}
\@writefile{snm}{\beamer@slide {fig:CNNshapstack}{68}}
\newlabel{sub@fig:CNNshapstack}{{a}{68}{SHAP stackplot on CNN\relax }{Doc-Start}{}}
\@writefile{snm}{\beamer@slide {sub@fig:CNNshapstack}{68}}
\newlabel{fig:CNNshapheat}{{40b}{68}{SHAP heatmap on CNN\relax }{Doc-Start}{}}
\@writefile{snm}{\beamer@slide {fig:CNNshapheat}{68}}
\newlabel{sub@fig:CNNshapheat}{{b}{68}{SHAP heatmap on CNN\relax }{Doc-Start}{}}
\@writefile{snm}{\beamer@slide {sub@fig:CNNshapheat}{68}}
\newlabel{fig:CNNshap}{{\caption@xref {fig:CNNshap}{ on input line 1278}}{68}{Data processing and results}{Doc-Start}{}}
\@writefile{snm}{\beamer@slide {fig:CNNshap}{68}}
\@writefile{nav}{\headcommand {\slideentry {3}{0}{49}{68/68}{}{0}}}
\@writefile{nav}{\headcommand {\beamer@framepages {68}{68}}}
\pbs@newkey{pbs@last@page}{69}
\@writefile{nav}{\headcommand {\slideentry {3}{0}{50}{69/69}{}{0}}}
\@writefile{nav}{\headcommand {\beamer@framepages {69}{69}}}
\@writefile{nav}{\headcommand {\beamer@partpages {1}{69}}}
\@writefile{nav}{\headcommand {\beamer@subsectionpages {20}{69}}}
\@writefile{nav}{\headcommand {\beamer@sectionpages {20}{69}}}
\@writefile{nav}{\headcommand {\beamer@documentpages {69}}}
\@writefile{nav}{\headcommand {\gdef \inserttotalframenumber {69}}}
