\babel@toc {english}{}
\beamer@sectionintoc {1}{Interpretability of neural network calibration}{3}{0}{1}
\beamer@sectionintoc {2}{Calibration of the Heston Model}{15}{0}{2}
\beamer@sectionintoc {3}{Data processing and results}{20}{0}{3}
